2020-12-17 20:36:41 =SUPERVISOR REPORT====
     Supervisor: {<0.63.0>,user_sup}
     Context:    child_terminated
     Reason:     epipe
     Offender:   [{pid,<0.64.0>},{mod,user_sup}]

2020-12-17 20:36:41 =ERROR REPORT====
** gen_event handler lager_console_backend crashed.
** Was installed in lager_event
** Last event was: {log,{lager_msg,[],[{pid,<0.60.0>}],info,{["2020",45,"12",45,"17"],["20",58,"36",58,"41",46,"325"]},{1608,237401,325018},"SIGTERM received - shutting down"}}
** When handler state == {state,{mask,255},user,lager_console_backend,lager_default_formatter,[date," ",time," ",color,"[",severity,"] ",{pid,[]}," ",message,"\r\n"],[]}
** Reason == {badarg,[{io,put_chars,[user,unicode,[["2020",45,"12",45,"17"]," ",["20",58,"36",58,"41",46,"325"]," ",[],"[","info","] ","<0.60.0>"," ","SIGTERM received - shutting down","\r\n"]],[]},{lager_console_backend,handle_event,2,[{file,"src/lager_console_backend.erl"},{line,179}]},{gen_event,server_update,4,[{file,"gen_event.erl"},{line,620}]},{gen_event,server_notify,4,[{file,"gen_event.erl"},{line,602}]},{gen_event,handle_msg,6,[{file,"gen_event.erl"},{line,343}]},{proc_lib,init_p_do_apply,3,[{file,"proc_lib.erl"},{line,226}]}]}
2020-12-17 20:36:41 =ERROR REPORT====
** gen_event handler lager_console_backend crashed.
** Was installed in lager_event
** Last event was: {log,{lager_msg,[],[{pid,<0.280.0>}],error,{["2020",45,"12",45,"17"],["20",58,"36",58,"41",46,"327"]},{1608,237401,327112},[42,42,32,103,101,110,95,101,118,101,110,116,32,104,97,110,100,108,101,114,32,"lager_console_backend",32,99,114,97,115,104,101,100,46,10,42,42,32,87,97,115,32,105,110,115,116,97,108,108,101,100,32,105,110,32,"lager_event",10,42,42,32,76,97,115,116,32,101,118,101,110,116,32,119,97,115,58,32,"{log,{lager_msg,[],[{pid,<0.60.0>}],info,{[\"2020\",45,\"12\",45,\"17\"],[\"20\",58,\"36\",58,\"41\",46,\"325\"]},{1608,237401,325018},\"SIGTERM received - shutting down\"}}",10,42,42,32,87,104,101,110,32,104,97,110,100,108,101,114,32,115,116,97,116,101,32,61,61,32,"{state,{mask,255},user,lager_console_backend,lager_default_formatter,[date,\" \",time,\" \",color,\"[\",severity,\"] \",{pid,[]},\" \",message,\"\\r\\n\"],[]}",10,42,42,32,82,101,97,115,111,110,32,61,61,32,"{badarg,[{io,put_chars,[user,unicode,[[\"2020\",45,\"12\",45,\"17\"],\" \",[\"20\",58,\"36\",58,\"41\",46,\"325\"],\" \",[],\"[\",\"info\",\"] \",\"<0.60.0>\",\" \",\"SIGTERM received - shutting down\",\"\\r\\n\"]],[]},{lager_console_backend,handle_event,2,[{file,\"src/lager_console_backend.erl\"},{line,179}]},{gen_event,server_update,4,[{file,\"gen_event.erl\"},{line,620}]},{gen_event,server_notify,4,[{file,\"gen_event.erl\"},{line,602}]},{gen_event,handle_msg,6,[{file,\"gen_event.erl\"},{line,343}]},{proc_lib,init_p_do_apply,3,[{file,\"proc_lib.erl\"},{line,226}]}]}"]}}
** When handler state == {state,{mask,255},user,lager_console_backend,lager_default_formatter,[date," ",time," ",color,"[",severity,"] ",{pid,[]}," ",message,"\r\n"],[]}
** Reason == {badarg,[{io,put_chars,[user,unicode,[["2020",45,"12",45,"17"]," ",["20",58,"36",58,"41",46,"327"]," ",[],"[","error","] ","<0.280.0>"," ",[42,42,32,103,101,110,95,101,118,101,110,116,32,104,97,110,100,108,101,114,32,"lager_console_backend",32,99,114,97,115,104,101,100,46,10,42,42,32,87,97,115,32,105,110,115,116,97,108,108,101,100,32,105,110,32,"lager_event",10,42,42,32,76,97,115,116,32,101,118,101,110,116,32,119,97,115,58,32,"{log,{lager_msg,[],[{pid,<0.60.0>}],info,{[\"2020\",45,\"12\",45,\"17\"],[\"20\",58,\"36\",58,\"41\",46,\"325\"]},{1608,237401,325018},\"SIGTERM received - shutting down\"}}",10,42,42,32,87,104,101,110,32,104,97,110,100,108,101,114,32,115,116,97,116,101,32,61,61,32,"{state,{mask,255},user,lager_console_backend,lager_default_formatter,[date,\" \",time,\" \",color,\"[\",severity,\"] \",{pid,[]},\" \",message,\"\\r\\n\"],[]}",10,42,42,32,82,101,97,115,111,110,32,61,61,32,"{badarg,[{io,put_chars,[user,unicode,[[\"2020\",45,\"12\",45,\"17\"],\" \",[\"20\",58,\"36\",58,\"41\",46,\"325\"],\" \",[],\"[\",\"info\",\"] \",\"<0.60.0>\",\" \",\"SIGTERM received - shutting down\",\"\\r\\n\"]],[]},{lager_console_backend,handle_event,2,[{file,\"src/lager_console_backend.erl\"},{line,179}]},{gen_event,server_update,4,[{file,\"gen_event.erl\"},{line,620}]},{gen_event,server_notify,4,[{file,\"gen_event.erl\"},{line,602}]},{gen_event,handle_msg,6,[{file,\"gen_event.erl\"},{line,343}]},{proc_lib,init_p_do_apply,3,[{file,\"proc_lib.erl\"},{line,226}]}]}"],"\r\n"]],[]},{lager_console_backend,handle_event,2,[{file,"src/lager_console_backend.erl"},{line,179}]},{gen_event,server_update,4,[{file,"gen_event.erl"},{line,620}]},{gen_event,server_notify,4,[{file,"gen_event.erl"},{line,602}]},{gen_event,handle_msg,6,[{file,"gen_event.erl"},{line,343}]},{proc_lib,init_p_do_apply,3,[{file,"proc_lib.erl"},{line,226}]}]}
2020-12-17 20:36:41 =ERROR REPORT====
** Generic server <0.63.0> terminating 
** Last message in was {'EXIT',<0.64.0>,epipe}
** When Server state == {state,user_sup,undefined,<0.64.0>,{<0.63.0>,user_sup}}
** Reason for termination ==
** epipe
2020-12-17 20:36:41 =CRASH REPORT====
  crasher:
    initial call: supervisor_bridge:user_sup/1
    pid: <0.63.0>
    registered_name: []
    exception exit: {epipe,[{gen_server,handle_common_reply,8,[{file,"gen_server.erl"},{line,796}]},{proc_lib,init_p_do_apply,3,[{file,"proc_lib.erl"},{line,226}]}]}
    ancestors: [kernel_sup,<0.47.0>]
    message_queue_len: 0
    messages: []
    links: [<0.49.0>]
    dictionary: []
    trap_exit: true
    status: running
    heap_size: 1598
    stack_size: 28
    reductions: 1015
  neighbours:
2020-12-17 20:36:41 =SUPERVISOR REPORT====
     Supervisor: {local,kernel_sup}
     Context:    child_terminated
     Reason:     epipe
     Offender:   [{pid,<0.63.0>},{id,user},{mfargs,{user_sup,start,[]}},{restart_type,temporary},{shutdown,2000},{child_type,supervisor}]

2020-12-17 20:36:41 =ERROR REPORT====
** gen_event handler lager_console_backend crashed.
** Was installed in lager_event
** Last event was: {log,{lager_msg,[],[{pid,<0.280.0>}],error,{["2020",45,"12",45,"17"],["20",58,"36",58,"41",46,"334"]},{1608,237401,334008},[42,42,32,103,101,110,95,101,118,101,110,116,32,104,97,110,100,108,101,114,32,"lager_console_backend",32,99,114,97,115,104,101,100,46,10,42,42,32,87,97,115,32,105,110,115,116,97,108,108,101,100,32,105,110,32,"lager_event",10,42,42,32,76,97,115,116,32,101,118,101,110,116,32,119,97,115,58,32,"{log,{lager_msg,[],[{pid,<0.280.0>}],error,{[\"2020\",45,\"12\",45,\"17\"],[\"20\",58,\"36\",58,\"41\",46,\"327\"]},{1608,237401,327112},[42,42,32,103,101,110,95,101,118,101,110,116,32,104,97,110,100,108,101,114,32,\"lager_console_backend\",32,99,114,97,115,104,101,100,46,10,42,42,32,87,97,115,32,105,110,115,116,97,108,108,101,100,32,105,110,32,\"lager_event\",10,42,42,32,76,97,115,116,32,101,118,101,110,116,32,119,97,115,58,32,\"{log,{lager_msg,[],[{pid,<0.60.0>}],info,{[\\\"2020\\\",45,\\\"12\\\",45,\\\"17\\\"],[\\\"20\\\",58,\\\"36\\\",58,\\\"41\\\",46,\\\"325\\\"]},{1608,237401,325018},\\\"SIGTERM received - shutting down\\\"}}\",10,42,42,32,87,104,101,110,32,104,97,110,100,108,101,114,32,115,116,97,116,101,32,61,61,32,\"{state,{mask,255},user,lager_console_backend,lager_default_formatter,[date,\\\" \\\",time,\\\" \\\",color,\\\"[\\\",severity,\\\"] \\\",{pid,[]},\\\" \\\",message,\\\"\\\\r\\\\n\\\"],[]}\",10,42,42,32,82,101,97,115,111,110,32,61,61,32,\"{badarg,[{io,put_chars,[user,unicode,[[\\\"2020\\\",45,\\\"12\\\",45,\\\"17\\\"],\\\" \\\",[\\\"20\\\",58,\\\"36\\\",58,\\\"41\\\",46,\\\"325\\\"],\\\" \\\",[],\\\"[\\\",\\\"info\\\",\\\"] \\\",\\\"<0.60.0>\\\",\\\" \\\",\\\"SIGTERM received - shutting down\\\",\\\"\\\\r\\\\n\\\"]],[]},{lager_console_backend,handle_event,2,[{file,\\\"src/lager_console_backend.erl\\\"},{line,179}]},{gen_event,server_update,4,[{file,\\\"gen_event.erl\\\"},{line,620}]},{gen_event,server_notify,4,[{file,\\\"gen_event.er...\"]}}",10,42,42,32,87,104,101,110,32,104,97,110,100,108,101,114,32,115,116,97,116,101,32,61,61,32,"{state,{mask,255},user,lager_console_backend,lager_default_formatter,[date,\" \",time,\" \",color,\"[\",severity,\"] \",{pid,[]},\" \",message,\"\\r\\n\"],[]}",10,42,42,32,82,101,97,115,111,110,32,61,61,32,"{badarg,[{io,put_chars,[user,unicode,[[\"2020\",45,\"12\",45,\"17\"],\" \",[\"20\",58,\"36\",58,\"41\",46,\"327\"],\" \",[],\"[\",\"error\",\"] \",\"<0.280.0>\",\" \",[42,42,32,103,101,110,95,101,118,101,110,116,32,104,97,110,100,108,101,114,32,\"lager_console_backend\",32,99,114,97,115,104,101,100,46,10,42,42,32,87,97,115,32,105,110,115,116,97,108,108,101,100,32,105,110,32,\"lager_event\",10,42,42,32,76,97,115,116,32,101,118,101,110,116,32,119,97,115,58,32,\"{log,{lager_msg,[],[{pid,<0.60.0>}],info,{[\\\"2020\\\",45,\\\"12\\\",45,\\\"17\\\"],[\\\"20\\\",58,\\\"36\\\",58,\\\"41\\\",46,\\\"325\\\"]},{1608,237401,325018},\\\"SIGTERM received - shutting down\\\"}}\",10,42,42,32,87,104,101,110,32,104,97,110,100,108,101,114,32,115,116,97,116,101,32,61,61,32,\"{state,{mask,255},user,lager_console_backend,lager_default_formatter,[date,\\\" \\\",time,\\\" \\\",color,\\\"[\\\",severity,\\\"] \\\",{pid,[]},\\\" \\\",message,\\\"\\\\r\\\\n\\\"],[]}\",10,42,42,32,82,101,97,115,111,110,32,61,61,32,\"{badarg,[{io,put_chars,[user,unicode,[[\\\"2020\\\",45,\\\"12\\\",45,\\\"17\\\"],\\\" \\\",[\\\"20\\\",58,\\\"36\\\",58,\\\"41\\\",46,\\\"325\\\"],\\\" \\\",[],\\\"[\\\",\\\"info\\\",\\\"] \\\",\\\"<0.60.0>\\\",\\\" \\\",\\\"SIGTERM received - shutting down\\\",\\\"\\\\r\\\\n\\\"]],[]},{lager_console_backend,handle_event,2,[{file,\\\"src/lager_console_backend.erl\\\"},{line,179}]},{gen_event,server_update,4,[{file,\\\"gen_event.erl\\\"},{line,620}]},{gen_event,server_notify,4,[{file,\\\"gen_event.erl\\\"},{line,602}]},{gen_event,handle_msg,6,[{file,\\\"gen_event.erl\\\"},{line,343}]},{proc_lib,init_p_do_apply,3,[{file,\\\"proc_lib.erl\\\"},{line,226}]}]}\"],\"\\r\\n\"]],[]},{lager_console_backend,handle_event,2,[{file,\"src/lager_console_backend.erl\"},{line,179}]},{gen_event,server_update,4,[{file,\"gen_event.erl\"},{line,620}]},{gen_event,server_notify,4,[{file,\"gen_event.erl\"},{line,602}]},{gen_event,handle_msg,6,[{file,\"gen_event.erl\"},{line,343}]},{proc_lib,init_p_do_apply,3,[{file,\"proc_lib.erl\"},{line,226}]}]}"]}}
** When handler state == {state,{mask,255},user,lager_console_backend,lager_default_formatter,[date," ",time," ",color,"[",severity,"] ",{pid,[]}," ",message,"\r\n"],[]}
** Reason == {badarg,[{io,put_chars,[user,unicode,[["2020",45,"12",45,"17"]," ",["20",58,"36",58,"41",46,"334"]," ",[],"[","error","] ","<0.280.0>"," ",[42,42,32,103,101,110,95,101,118,101,110,116,32,104,97,110,100,108,101,114,32,"lager_console_backend",32,99,114,97,115,104,101,100,46,10,42,42,32,87,97,115,32,105,110,115,116,97,108,108,101,100,32,105,110,32,"lager_event",10,42,42,32,76,97,115,116,32,101,118,101,110,116,32,119,97,115,58,32,"{log,{lager_msg,[],[{pid,<0.280.0>}],error,{[\"2020\",45,\"12\",45,\"17\"],[\"20\",58,\"36\",58,\"41\",46,\"327\"]},{1608,237401,327112},[42,42,32,103,101,110,95,101,118,101,110,116,32,104,97,110,100,108,101,114,32,\"lager_console_backend\",32,99,114,97,115,104,101,100,46,10,42,42,32,87,97,115,32,105,110,115,116,97,108,108,101,100,32,105,110,32,\"lager_event\",10,42,42,32,76,97,115,116,32,101,118,101,110,116,32,119,97,115,58,32,\"{log,{lager_msg,[],[{pid,<0.60.0>}],info,{[\\\"2020\\\",45,\\\"12\\\",45,\\\"17\\\"],[\\\"20\\\",58,\\\"36\\\",58,\\\"41\\\",46,\\\"325\\\"]},{1608,237401,325018},\\\"SIGTERM received - shutting down\\\"}}\",10,42,42,32,87,104,101,110,32,104,97,110,100,108,101,114,32,115,116,97,116,101,32,61,61,32,\"{state,{mask,255},user,lager_console_backend,lager_default_formatter,[date,\\\" \\\",time,\\\" \\\",color,\\\"[\\\",severity,\\\"] \\\",{pid,[]},\\\" \\\",message,\\\"\\\\r\\\\n\\\"],[]}\",10,42,42,32,82,101,97,115,111,110,32,61,61,32,\"{badarg,[{io,put_chars,[user,unicode,[[\\\"2020\\\",45,\\\"12\\\",45,\\\"17\\\"],\\\" \\\",[\\\"20\\\",58,\\\"36\\\",58,\\\"41\\\",46,\\\"325\\\"],\\\" \\\",[],\\\"[\\\",\\\"info\\\",\\\"] \\\",\\\"<0.60.0>\\\",\\\" \\\",\\\"SIGTERM received - shutting down\\\",\\\"\\\\r\\\\n\\\"]],[]},{lager_console_backend,handle_event,2,[{file,\\\"src/lager_console_backend.erl\\\"},{line,179}]},{gen_event,server_update,4,[{file,\\\"gen_event.erl\\\"},{line,620}]},{gen_event,server_notify,4,[{file,\\\"gen_event.er...\"]}}",10,42,42,32,87,104,101,110,32,104,97,110,100,108,101,114,32,115,116,97,116,101,32,61,61,32,"{state,{mask,255},user,lager_console_backend,lager_default_formatter,[date,\" \",time,\" \",color,\"[\",severity,\"] \",{pid,[]},\" \",message,\"\\r\\n\"],[]}",10,42,42,32,82,101,97,115,111,110,32,61,61,32,"{badarg,[{io,put_chars,[user,unicode,[[\"2020\",45,\"12\",45,\"17\"],\" \",[\"20\",58,\"36\",58,\"41\",46,\"327\"],\" \",[],\"[\",\"error\",\"] \",\"<0.280.0>\",\" \",[42,42,32,103,101,110,95,101,118,101,110,116,32,104,97,110,100,108,101,114,32,\"lager_console_backend\",32,99,114,97,115,104,101,100,46,10,42,42,32,87,97,115,32,105,110,115,116,97,108,108,101,100,32,105,110,32,\"lager_event\",10,42,42,32,76,97,115,116,32,101,118,101,110,116,32,119,97,115,58,32,\"{log,{lager_msg,[],[{pid,<0.60.0>}],info,{[\\\"2020\\\",45,\\\"12\\\",45,\\\"17\\\"],[\\\"20\\\",58,\\\"36\\\",58,\\\"41\\\",46,\\\"325\\\"]},{1608,237401,325018},\\\"SIGTERM received - shutting down\\\"}}\",10,42,42,32,87,104,101,110,32,104,97,110,100,108,101,114,32,115,116,97,116,101,32,61,61,32,\"{state,{mask,255},user,lager_console_backend,lager_default_formatter,[date,\\\" \\\",time,\\\" \\\",color,\\\"[\\\",severity,\\\"] \\\",{pid,[]},\\\" \\\",message,\\\"\\\\r\\\\n\\\"],[]}\",10,42,42,32,82,101,97,115,111,110,32,61,61,32,\"{badarg,[{io,put_chars,[user,unicode,[[\\\"2020\\\",45,\\\"12\\\",45,\\\"17\\\"],\\\" \\\",[\\\"20\\\",58,\\\"36\\\",58,\\\"41\\\",46,\\\"325\\\"],\\\" \\\",[],\\\"[\\\",\\\"info\\\",\\\"] \\\",\\\"<0.60.0>\\\",\\\" \\\",\\\"SIGTERM received - shutting down\\\",\\\"\\\\r\\\\n\\\"]],[]},{lager_console_backend,handle_event,2,[{file,\\\"src/lager_console_backend.erl\\\"},{line,179}]},{gen_event,server_update,4,[{file,\\\"gen_event.erl\\\"},{line,620}]},{gen_event,server_notify,4,[{file,\\\"gen_event.erl\\\"},{line,602}]},{gen_event,handle_msg,6,[{file,\\\"gen_event.erl\\\"},{line,343}]},{proc_lib,init_p_do_apply,3,[{file,\\\"proc_lib.erl\\\"},{line,226}]}]}\"],\"\\r\\n\"]],[]},{lager_console_backend,handle_event,2,[{file,\"src/lager_console_backend.erl\"},{line,179}]},{gen_event,server_update,4,[{file,\"gen_event.erl\"},{line,620}]},{gen_event,server_notify,4,[{file,\"gen_event.erl\"},{line,602}]},{gen_event,handle_msg,6,[{file,\"gen_event.erl\"},{line,343}]},{proc_lib,init_p_do_apply,3,[{file,\"proc_lib.erl\"},{line,226}]}]}"],"\r\n"]],[]},{lager_console_backend,handle_event,2,[{file,"src/lager_console_backend.erl"},{line,179}]},{gen_event,server_update,4,[{file,"gen_event.erl"},{line,620}]},{gen_event,server_notify,4,[{file,"gen_event.erl"},{line,602}]},{gen_event,handle_msg,6,[{file,"gen_event.erl"},{line,343}]},{proc_lib,init_p_do_apply,3,[{file,"proc_lib.erl"},{line,226}]}]}
2020-12-17 20:36:41 =ERROR REPORT====
** gen_event handler lager_console_backend crashed.
** Was installed in lager_event
** Last event was: {log,{lager_msg,[],[{pid,<0.285.0>},{line,127},{file,"src/lager_handler_watcher.erl"},{module,lager_handler_watcher}],debug,{["2020",45,"12",45,"17"],["20",58,"36",58,"41",46,"336"]},{1608,237401,336031},[76,97,103,101,114,32,105,110,115,116,97,108,108,101,100,32,104,97,110,100,108,101,114,32,"lager_console_backend",32,105,110,116,111,32,"lager_event"]}}
** When handler state == {state,{mask,255},user,lager_console_backend,lager_default_formatter,[date," ",time," ",color,"[",severity,"] ",{pid,[]}," ",message,"\r\n"],[]}
** Reason == {badarg,[{io,put_chars,[user,unicode,[["2020",45,"12",45,"17"]," ",["20",58,"36",58,"41",46,"336"]," ",[],"[","debug","] ","<0.285.0>"," ",[76,97,103,101,114,32,105,110,115,116,97,108,108,101,100,32,104,97,110,100,108,101,114,32,"lager_console_backend",32,105,110,116,111,32,"lager_event"],"\r\n"]],[]},{lager_console_backend,handle_event,2,[{file,"src/lager_console_backend.erl"},{line,179}]},{gen_event,server_update,4,[{file,"gen_event.erl"},{line,620}]},{gen_event,server_notify,4,[{file,"gen_event.erl"},{line,602}]},{gen_event,handle_msg,6,[{file,"gen_event.erl"},{line,343}]},{proc_lib,init_p_do_apply,3,[{file,"proc_lib.erl"},{line,226}]}]}
2020-12-17 20:36:41 =ERROR REPORT====
** gen_event handler lager_console_backend crashed.
** Was installed in lager_event
** Last event was: {log,{lager_msg,[],[{pid,<0.280.0>}],error,{["2020",45,"12",45,"17"],["20",58,"36",58,"41",46,"336"]},{1608,237401,336901},[42,42,32,103,101,110,95,101,118,101,110,116,32,104,97,110,100,108,101,114,32,"lager_console_backend",32,99,114,97,115,104,101,100,46,10,42,42,32,87,97,115,32,105,110,115,116,97,108,108,101,100,32,105,110,32,"lager_event",10,42,42,32,76,97,115,116,32,101,118,101,110,116,32,119,97,115,58,32,"{log,{lager_msg,[],[{pid,<0.280.0>}],error,{[\"2020\",45,\"12\",45,\"17\"],[\"20\",58,\"36\",58,\"41\",46,\"334\"]},{1608,237401,334008},[42,42,32,103,101,110,95,101,118,101,110,116,32,104,97,110,100,108,101,114,32,\"lager_console_backend\",32,99,114,97,115,104,101,100,46,10,42,42,32,87,97,115,32,105,110,115,116,97,108,108,101,100,32,105,110,32,\"lager_event\",10,42,42,32,76,97,115,116,32,101,118,101,110,116,32,119,97,115,58,32,\"{log,{lager_msg,[],[{pid,<0.280.0>}],error,{[\\\"2020\\\",45,\\\"12\\\",45,\\\"17\\\"],[\\\"20\\\",58,\\\"36\\\",58,\\\"41\\\",46,\\\"327\\\"]},{1608,237401,327112},[42,42,32,103,101,110,95,101,118,101,110,116,32,104,97,110,100,108,101,114,32,\\\"lager_console_backend\\\",32,99,114,97,115,104,101,100,46,10,42,42,32,87,97,115,32,105,110,115,116,97,108,108,101,100,32,105,110,32,\\\"lager_event\\\",10,42,42,32,76,97,115,116,32,101,118,101,110,116,32,119,97,115,58,32,\\\"{log,{lager_msg,[],[{pid,<0.60.0>}],info,{[\\\\\\\"2020\\\\\\\",45,\\\\\\\"12\\\\\\\",45,\\\\\\\"17\\\\\\\"],[\\\\\\\"20\\\\\\\",58,\\\\\\\"36\\\\\\\",58,\\\\\\\"41\\\\\\\",46,\\\\\\\"325\\\\\\\"]},{1608,237401,325018},\\\\\\\"SIGTERM received - shutting down\\\\\\\"}}\\\",10,42,42,32,87,104,101,110,32,104,97,110,100,108,101,114,32,115,116,97,116,101,32,61,61,32,\\\"{state,{mask,255},user,lager_console_backend,lager_default_formatter,[date,\\\\\\\" \\\\\\\",time,\\\\\\\" \\\\\\\",color,\\\\\\\"[\\\\\\\",severity,\\\\\\\"] \\\\\\\",{pid,[]},\\\\\\\" \\\\\\\",message,\\\\\\\"\\\\\\\\r\\\\\\\\n\\\\\\\"],[]}\\\",10,42,42,32,82,101,...\",...]}}",10,42,42,32,87,104,101,110,32,104,97,110,100,108,101,114,32,115,116,97,116,101,32,61,61,32,"{state,{mask,255},user,lager_console_backend,lager_default_formatter,[date,\" \",time,\" \",color,\"[\",severity,\"] \",{pid,[]},\" \",message,\"\\r\\n\"],[]}",10,42,42,32,82,101,97,115,111,110,32,61,61,32,"{badarg,[{io,put_chars,[user,unicode,[[\"2020\",45,\"12\",45,\"17\"],\" \",[\"20\",58,\"36\",58,\"41\",46,\"334\"],\" \",[],\"[\",\"error\",\"] \",\"<0.280.0>\",\" \",[42,42,32,103,101,110,95,101,118,101,110,116,32,104,97,110,100,108,101,114,32,\"lager_console_backend\",32,99,114,97,115,104,101,100,46,10,42,42,32,87,97,115,32,105,110,115,116,97,108,108,101,100,32,105,110,32,\"lager_event\",10,42,42,32,76,97,115,116,32,101,118,101,110,116,32,119,97,115,58,32,\"{log,{lager_msg,[],[{pid,<0.280.0>}],error,{[\\\"2020\\\",45,\\\"12\\\",45,\\\"17\\\"],[\\\"20\\\",58,\\\"36\\\",58,\\\"41\\\",46,\\\"327\\\"]},{1608,237401,327112},[42,42,32,103,101,110,95,101,118,101,110,116,32,104,97,110,100,108,101,114,32,\\\"lager_console_backend\\\",32,99,114,97,115,104,101,100,46,10,42,42,32,87,97,115,32,105,110,115,116,97,108,108,101,100,32,105,110,32,\\\"lager_event\\\",10,42,42,32,76,97,115,116,32,101,118,101,110,116,32,119,97,115,58,32,\\\"{log,{lager_msg,[],[{pid,<0.60.0>}],info,{[\\\\\\\"2020\\\\\\\",45,\\\\\\\"12\\\\\\\",45,\\\\\\\"17\\\\\\\"],[\\\\\\\"20\\\\\\\",58,\\\\\\\"36\\\\\\\",58,\\\\\\\"41\\\\\\\",46,\\\\\\\"325\\\\\\\"]},{1608,237401,325018},\\\\\\\"SIGTERM received - shutting down\\\\\\\"}}\\\",10,42,42,32,87,104,101,110,32,104,97,110,100,108,101,114,32,115,116,97,116,101,32,61,61,32,\\\"{state,{mask,255},user,lager_console_backend,lager_default_formatter,[date,\\\\\\\" \\\\\\\",time,\\\\\\\" \\\\\\\",color,\\\\\\\"[\\\\\\\",severity,\\\\\\\"] \\\\\\\",{pid,[]},\\\\\\\" \\\\\\\",message,\\\\\\\"\\\\\\\\r\\\\\\\\n\\\\\\\"],[]}\\\",10,42,42,32,82,101,97,115,111,110,32,61,61,32,\\\"{badarg,[{io,put_chars,[user,unicode,[[\\\\\\\"2020\\\\\\\",45,\\\\\\\"12\\\\\\\",45,\\\\\\\"17\\\\\\\"],\\\\\\\" \\\\\\\",[\\\\\\\"20\\\\\\\",58,\\\\\\\"36\\\\\\\",58,\\\\\\\"41\\\\\\\",46,\\\\\\\"325\\\\\\\"],\\\\\\\" \\\\\\\",[],\\\\\\\"[\\\\\\\",\\\\\\\"info\\\\\\\",\\\\\\\"] \\\\\\\",\\\\\\\"<0.60.0>\\\\\\\",\\\\\\\" \\\\\\\",\\\\\\\"SIGTERM received - shutting down\\\\\\\",\\\\\\\"\\\\\\\\r\\\\\\\\n\\\\\\\"]],[]},{lager_console_backend,handle_event,2,[{file,\\\\\\\"src/lager_console_backend.erl\\\\\\\"},{line,179}]},{gen_event,server_update,4,[{file,\\\\\\\"gen_event.erl\\\\\\\"},{line,620}]},{gen_event,server_notify,4,[{file,\\\\\\\"gen_event.er...\\\"]}}\",10,42,42,32,87,104,101,110,32,104,97,110,100,108,101,114,32,115,116,97,116,101,32,61,61,32,\"{state,{mask,255},user,lager_console_backend,lager_default_formatter,[date,\\\" \\\",time,\\\" \\\",color,\\\"[\\\",severity,\\\"] \\\",{pid,[]},\\\" \\\",message,\\\"\\\\r\\\\n\\\"],[]}\",10,42,42,32,82,101,97,115,111,110,32,61,61,32,\"{badarg,[{io,put_chars,[user,unicode,[[\\\"2020\\\",45,\\\"12\\\",45,\\\"17\\\"],\\\" \\\",[\\\"20\\\",58,\\\"36\\\",58,\\\"41\\\",46,\\\"327\\\"],\\\" \\\",[],\\\"[...\"],...]],...},...]}"]}}
** When handler state == {state,{mask,255},user,lager_console_backend,lager_default_formatter,[date," ",time," ",color,"[",severity,"] ",{pid,[]}," ",message,"\r\n"],[]}
** Reason == {badarg,[{io,put_chars,[user,unicode,[["2020",45,"12",45,"17"]," ",["20",58,"36",58,"41",46,"336"]," ",[],"[","error","] ","<0.280.0>"," ",[42,42,32,103,101,110,95,101,118,101,110,116,32,104,97,110,100,108,101,114,32,"lager_console_backend",32,99,114,97,115,104,101,100,46,10,42,42,32,87,97,115,32,105,110,115,116,97,108,108,101,100,32,105,110,32,"lager_event",10,42,42,32,76,97,115,116,32,101,118,101,110,116,32,119,97,115,58,32,"{log,{lager_msg,[],[{pid,<0.280.0>}],error,{[\"2020\",45,\"12\",45,\"17\"],[\"20\",58,\"36\",58,\"41\",46,\"334\"]},{1608,237401,334008},[42,42,32,103,101,110,95,101,118,101,110,116,32,104,97,110,100,108,101,114,32,\"lager_console_backend\",32,99,114,97,115,104,101,100,46,10,42,42,32,87,97,115,32,105,110,115,116,97,108,108,101,100,32,105,110,32,\"lager_event\",10,42,42,32,76,97,115,116,32,101,118,101,110,116,32,119,97,115,58,32,\"{log,{lager_msg,[],[{pid,<0.280.0>}],error,{[\\\"2020\\\",45,\\\"12\\\",45,\\\"17\\\"],[\\\"20\\\",58,\\\"36\\\",58,\\\"41\\\",46,\\\"327\\\"]},{1608,237401,327112},[42,42,32,103,101,110,95,101,118,101,110,116,32,104,97,110,100,108,101,114,32,\\\"lager_console_backend\\\",32,99,114,97,115,104,101,100,46,10,42,42,32,87,97,115,32,105,110,115,116,97,108,108,101,100,32,105,110,32,\\\"lager_event\\\",10,42,42,32,76,97,115,116,32,101,118,101,110,116,32,119,97,115,58,32,\\\"{log,{lager_msg,[],[{pid,<0.60.0>}],info,{[\\\\\\\"2020\\\\\\\",45,\\\\\\\"12\\\\\\\",45,\\\\\\\"17\\\\\\\"],[\\\\\\\"20\\\\\\\",58,\\\\\\\"36\\\\\\\",58,\\\\\\\"41\\\\\\\",46,\\\\\\\"325\\\\\\\"]},{1608,237401,325018},\\\\\\\"SIGTERM received - shutting down\\\\\\\"}}\\\",10,42,42,32,87,104,101,110,32,104,97,110,100,108,101,114,32,115,116,97,116,101,32,61,61,32,\\\"{state,{mask,255},user,lager_console_backend,lager_default_formatter,[date,\\\\\\\" \\\\\\\",time,\\\\\\\" \\\\\\\",color,\\\\\\\"[\\\\\\\",severity,\\\\\\\"] \\\\\\\",{pid,[]},\\\\\\\" \\\\\\\",message,\\\\\\\"\\\\\\\\r\\\\\\\\n\\\\\\\"],[]}\\\",10,42,42,32,82,101,...\",...]}}",10,42,42,32,87,104,101,110,32,104,97,110,100,108,101,114,32,115,116,97,116,101,32,61,61,32,"{state,{mask,255},user,lager_console_backend,lager_default_formatter,[date,\" \",time,\" \",color,\"[\",severity,\"] \",{pid,[]},\" \",message,\"\\r\\n\"],[]}",10,42,42,32,82,101,97,115,111,110,32,61,61,32,"{badarg,[{io,put_chars,[user,unicode,[[\"2020\",45,\"12\",45,\"17\"],\" \",[\"20\",58,\"36\",58,\"41\",46,\"334\"],\" \",[],\"[\",\"error\",\"] \",\"<0.280.0>\",\" \",[42,42,32,103,101,110,95,101,118,101,110,116,32,104,97,110,100,108,101,114,32,\"lager_console_backend\",32,99,114,97,115,104,101,100,46,10,42,42,32,87,97,115,32,105,110,115,116,97,108,108,101,100,32,105,110,32,\"lager_event\",10,42,42,32,76,97,115,116,32,101,118,101,110,116,32,119,97,115,58,32,\"{log,{lager_msg,[],[{pid,<0.280.0>}],error,{[\\\"2020\\\",45,\\\"12\\\",45,\\\"17\\\"],[\\\"20\\\",58,\\\"36\\\",58,\\\"41\\\",46,\\\"327\\\"]},{1608,237401,327112},[42,42,32,103,101,110,95,101,118,101,110,116,32,104,97,110,100,108,101,114,32,\\\"lager_console_backend\\\",32,99,114,97,115,104,101,100,46,10,42,42,32,87,97,115,32,105,110,115,116,97,108,108,101,100,32,105,110,32,\\\"lager_event\\\",10,42,42,32,76,97,115,116,32,101,118,101,110,116,32,119,97,115,58,32,\\\"{log,{lager_msg,[],[{pid,<0.60.0>}],info,{[\\\\\\\"2020\\\\\\\",45,\\\\\\\"12\\\\\\\",45,\\\\\\\"17\\\\\\\"],[\\\\\\\"20\\\\\\\",58,\\\\\\\"36\\\\\\\",58,\\\\\\\"41\\\\\\\",46,\\\\\\\"325\\\\\\\"]},{1608,237401,325018},\\\\\\\"SIGTERM received - shutting down\\\\\\\"}}\\\",10,42,42,32,87,104,101,110,32,104,97,110,100,108,101,114,32,115,116,97,116,101,32,61,61,32,\\\"{state,{mask,255},user,lager_console_backend,lager_default_formatter,[date,\\\\\\\" \\\\\\\",time,\\\\\\\" \\\\\\\",color,\\\\\\\"[\\\\\\\",severity,\\\\\\\"] \\\\\\\",{pid,[]},\\\\\\\" \\\\\\\",message,\\\\\\\"\\\\\\\\r\\\\\\\\n\\\\\\\"],[]}\\\",10,42,42,32,82,101,97,115,111,110,32,61,61,32,\\\"{badarg,[{io,put_chars,[user,unicode,[[\\\\\\\"2020\\\\\\\",45,\\\\\\\"12\\\\\\\",45,\\\\\\\"17\\\\\\\"],\\\\\\\" \\\\\\\",[\\\\\\\"20\\\\\\\",58,\\\\\\\"36\\\\\\\",58,\\\\\\\"41\\\\\\\",46,\\\\\\\"325\\\\\\\"],\\\\\\\" \\\\\\\",[],\\\\\\\"[\\\\\\\",\\\\\\\"info\\\\\\\",\\\\\\\"] \\\\\\\",\\\\\\\"<0.60.0>\\\\\\\",\\\\\\\" \\\\\\\",\\\\\\\"SIGTERM received - shutting down\\\\\\\",\\\\\\\"\\\\\\\\r\\\\\\\\n\\\\\\\"]],[]},{lager_console_backend,handle_event,2,[{file,\\\\\\\"src/lager_console_backend.erl\\\\\\\"},{line,179}]},{gen_event,server_update,4,[{file,\\\\\\\"gen_event.erl\\\\\\\"},{line,620}]},{gen_event,server_notify,4,[{file,\\\\\\\"gen_event.er...\\\"]}}\",10,42,42,32,87,104,101,110,32,104,97,110,100,108,101,114,32,115,116,97,116,101,32,61,61,32,\"{state,{mask,255},user,lager_console_backend,lager_default_formatter,[date,\\\" \\\",time,\\\" \\\",color,\\\"[\\\",severity,\\\"] \\\",{pid,[]},\\\" \\\",message,\\\"\\\\r\\\\n\\\"],[]}\",10,42,42,32,82,101,97,115,111,110,32,61,61,32,\"{badarg,[{io,put_chars,[user,unicode,[[\\\"2020\\\",45,\\\"12\\\",45,\\\"17\\\"],\\\" \\\",[\\\"20\\\",58,\\\"36\\\",58,\\\"41\\\",46,\\\"327\\\"],\\\" \\\",[],\\\"[...\"],...]],...},...]}"],"\r\n"]],[]},{lager_console_backend,handle_event,2,[{file,"src/lager_console_backend.erl"},{line,179}]},{gen_event,server_update,4,[{file,"gen_event.erl"},{line,620}]},{gen_event,server_notify,4,[{file,"gen_event.erl"},{line,602}]},{gen_event,handle_msg,6,[{file,"gen_event.erl"},{line,343}]},{proc_lib,init_p_do_apply,3,[{file,"proc_lib.erl"},{line,226}]}]}
2020-12-17 20:36:41 =ERROR REPORT====
** gen_event handler lager_console_backend crashed.
** Was installed in lager_event
** Last event was: {log,{lager_msg,[],[{pid,<0.280.0>}],error,{["2020",45,"12",45,"17"],["20",58,"36",58,"41",46,"339"]},{1608,237401,339352},[42,42,32,103,101,110,95,101,118,101,110,116,32,104,97,110,100,108,101,114,32,"lager_console_backend",32,99,114,97,115,104,101,100,46,10,42,42,32,87,97,115,32,105,110,115,116,97,108,108,101,100,32,105,110,32,"lager_event",10,42,42,32,76,97,115,116,32,101,118,101,110,116,32,119,97,115,58,32,"{log,{lager_msg,[],[{pid,<0.280.0>}],error,{[\"2020\",45,\"12\",45,\"17\"],[\"20\",58,\"36\",58,\"41\",46,\"336\"]},{1608,237401,336901},[42,42,32,103,101,110,95,101,118,101,110,116,32,104,97,110,100,108,101,114,32,\"lager_console_backend\",32,99,114,97,115,104,101,100,46,10,42,42,32,87,97,115,32,105,110,115,116,97,108,108,101,100,32,105,110,32,\"lager_event\",10,42,42,32,76,97,115,116,32,101,118,101,110,116,32,119,97,115,58,32,\"{log,{lager_msg,[],[{pid,<0.280.0>}],error,{[\\\"2020\\\",45,\\\"12\\\",45,\\\"17\\\"],[\\\"20\\\",58,\\\"36\\\",58,\\\"41\\\",46,\\\"334\\\"]},{1608,237401,334008},[42,42,32,103,101,110,95,101,118,101,110,116,32,104,97,110,100,108,101,114,32,\\\"lager_console_backend\\\",32,99,114,97,115,104,101,100,46,10,42,42,32,87,97,115,32,105,110,115,116,97,108,108,101,100,32,105,110,32,\\\"lager_event\\\",10,42,42,32,76,97,115,116,32,101,118,101,110,116,32,119,97,115,58,32,\\\"{log,{lager_msg,[],[{pid,<0.280.0>}],error,{[\\\\\\\"2020\\\\\\\",45,\\\\\\\"12\\\\\\\",45,\\\\\\\"17\\\\\\\"],[\\\\\\\"20\\\\\\\",58,\\\\\\\"36\\\\\\\",58,\\\\\\\"41\\\\\\\",46,\\\\\\\"327\\\\\\\"]},{1608,237401,327112},[42,42,32,103,101,110,95,101,118,101,110,116,32,104,97,110,100,108,101,114,32,\\\\\\\"lager_console_backend\\\\\\\",32,99,114,97,115,104,101,100,46,10,42,42,32,87,97,115,32,105,110,115,116,97,108,108,101,100,32,105,110,32,\\\\\\\"lager_event\\\\\\\",10,42,42,32,76,97,115,116,32,101,118,101,110,116,32,119,97,115,58,32,\\\\\\\"{log,{lager_...\",...]}}",10,42,42,32,87,104,101,110,32,104,97,110,100,108,101,114,32,115,116,97,116,101,32,61,61,32,"{state,{mask,255},user,lager_console_backend,lager_default_formatter,[date,\" \",time,\" \",color,\"[\",severity,\"] \",{pid,[]},\" \",message,\"\\r\\n\"],[]}",10,42,42,32,82,101,97,115,111,110,32,61,61,32,"{badarg,[{io,put_chars,[user,unicode,[[\"2020\",45,\"12\",45,\"17\"],\" \",[\"20\",58,\"36\",58,\"41\",46,\"336\"],\" \",[],\"[\",\"error\",\"] \",\"<0.280.0>\",\" \",[42,42,32,103,101,110,95,101,118,101,110,116,32,104,97,110,100,108,101,114,32,\"lager_console_backend\",32,99,114,97,115,104,101,100,46,10,42,42,32,87,97,115,32,105,110,115,116,97,108,108,101,100,32,105,110,32,\"lager_event\",10,42,42,32,76,97,115,116,32,101,118,101,110,116,32,119,97,115,58,32,\"{log,{lager_msg,[],[{pid,<0.280.0>}],error,{[\\\"2020\\\",45,\\\"12\\\",45,\\\"17\\\"],[\\\"20\\\",58,\\\"36\\\",58,\\\"41\\\",46,\\\"334\\\"]},{1608,237401,334008},[42,42,32,103,101,110,95,101,118,101,110,116,32,104,97,110,100,108,101,114,32,\\\"lager_console_backend\\\",32,99,114,97,115,104,101,100,46,10,42,42,32,87,97,115,32,105,110,115,116,97,108,108,101,100,32,105,110,32,\\\"lager_event\\\",10,42,42,32,76,97,115,116,32,101,118,101,110,116,32,119,97,115,58,32,\\\"{log,{lager_msg,[],[{pid,<0.280.0>}],error,{[\\\\\\\"2020\\\\\\\",45,\\\\\\\"12\\\\\\\",45,\\\\\\\"17\\\\\\\"],[\\\\\\\"20\\\\\\\",58,\\\\\\\"36\\\\\\\",58,\\\\\\\"41\\\\\\\",46,\\\\\\\"327\\\\\\\"]},{1608,237401,327112},[42,42,32,103,101,110,95,101,118,101,110,116,32,104,97,110,100,108,101,114,32,\\\\\\\"lager_console_backend\\\\\\\",32,99,114,97,115,104,101,100,46,10,42,42,32,87,97,115,32,105,110,115,116,97,108,108,101,100,32,105,110,32,\\\\\\\"lager_event\\\\\\\",10,42,42,32,76,97,115,116,32,101,118,101,110,116,32,119,97,115,58,32,\\\\\\\"{log,{lager_msg,[],[{pid,<0.60.0>}],info,{[\\\\\\\\\\\\\\\"2020\\\\\\\\\\\\\\\",45,\\\\\\\\\\\\\\\"12\\\\\\\\\\\\\\\",45,\\\\\\\\\\\\\\\"17\\\\\\\\\\\\\\\"],[\\\\\\\\\\\\\\\"20\\\\\\\\\\\\\\\",58,\\\\\\\\\\\\\\\"36\\\\\\\\\\\\\\\",58,\\\\\\\\\\\\\\\"41\\\\\\\\\\\\\\\",46,\\\\\\\\\\\\\\\"325\\\\\\\\\\\\\\\"]},{1608,237401,325018},\\\\\\\\\\\\\\\"SIGTERM received - shutting down\\\\\\\\\\\\\\\"}}\\\\\\\",10,42,42,32,87,104,101,110,32,104,97,110,100,108,101,114,32,115,116,97,116,101,32,61,61,32,\\\\\\\"{state,{mask,255},user,lager_console_backend,lager_default_formatter,[date,\\\\\\\\\\\\\\\" \\\\\\\\\\\\\\\",time,\\\\\\\\\\\\\\\" \\\\\\\\\\\\\\\",color,\\\\\\\\\\\\\\\"[\\\\\\\\\\\\\\\",severity,\\\\\\\\\\\\\\\"] \\\\\\\\\\\\\\\",{pid,[]},\\\\\\\\\\\\\\\" \\\\\\\\\\\\\\\",message,\\\\\\\\\\\\\\\"\\\\\\\\\\\\\\\\r\\\\\\\\\\\\\\\\n\\\\\\\\\\\\\\\"],[]}\\\\\\\",10,42,42,32,82,101,...\\\",...]}}\",10,42,42,32,87,104,101,110,32,104,97,110,100,108,101,114,32,115,116,97,116,101,32,61,61,32,\"{state,{mask,255},user,lager_console_backend,lager_default_formatter,[date,\\\" \\\",time,\\\" \\\",color,\\\"[\\\",severity,\\\"] \\\",{pid,[]},\\\" \\\",message,\\\"\\\\r\\\\n\\\"],[]}\",10,42,42,32,82,101,97,115,111,110,32,61,61,32,\"{badarg,[{io,put_chars,[user,unicode,[[\\\"2020\\\",45,\\\"12\\\",45,\\\"17\\\"],\\\"...\"],...]],...},...]}"]}}
** When handler state == {state,{mask,255},user,lager_console_backend,lager_default_formatter,[date," ",time," ",color,"[",severity,"] ",{pid,[]}," ",message,"\r\n"],[]}
** Reason == {badarg,[{io,put_chars,[user,unicode,[["2020",45,"12",45,"17"]," ",["20",58,"36",58,"41",46,"339"]," ",[],"[","error","] ","<0.280.0>"," ",[42,42,32,103,101,110,95,101,118,101,110,116,32,104,97,110,100,108,101,114,32,"lager_console_backend",32,99,114,97,115,104,101,100,46,10,42,42,32,87,97,115,32,105,110,115,116,97,108,108,101,100,32,105,110,32,"lager_event",10,42,42,32,76,97,115,116,32,101,118,101,110,116,32,119,97,115,58,32,"{log,{lager_msg,[],[{pid,<0.280.0>}],error,{[\"2020\",45,\"12\",45,\"17\"],[\"20\",58,\"36\",58,\"41\",46,\"336\"]},{1608,237401,336901},[42,42,32,103,101,110,95,101,118,101,110,116,32,104,97,110,100,108,101,114,32,\"lager_console_backend\",32,99,114,97,115,104,101,100,46,10,42,42,32,87,97,115,32,105,110,115,116,97,108,108,101,100,32,105,110,32,\"lager_event\",10,42,42,32,76,97,115,116,32,101,118,101,110,116,32,119,97,115,58,32,\"{log,{lager_msg,[],[{pid,<0.280.0>}],error,{[\\\"2020\\\",45,\\\"12\\\",45,\\\"17\\\"],[\\\"20\\\",58,\\\"36\\\",58,\\\"41\\\",46,\\\"334\\\"]},{1608,237401,334008},[42,42,32,103,101,110,95,101,118,101,110,116,32,104,97,110,100,108,101,114,32,\\\"lager_console_backend\\\",32,99,114,97,115,104,101,100,46,10,42,42,32,87,97,115,32,105,110,115,116,97,108,108,101,100,32,105,110,32,\\\"lager_event\\\",10,42,42,32,76,97,115,116,32,101,118,101,110,116,32,119,97,115,58,32,\\\"{log,{lager_msg,[],[{pid,<0.280.0>}],error,{[\\\\\\\"2020\\\\\\\",45,\\\\\\\"12\\\\\\\",45,\\\\\\\"17\\\\\\\"],[\\\\\\\"20\\\\\\\",58,\\\\\\\"36\\\\\\\",58,\\\\\\\"41\\\\\\\",46,\\\\\\\"327\\\\\\\"]},{1608,237401,327112},[42,42,32,103,101,110,95,101,118,101,110,116,32,104,97,110,100,108,101,114,32,\\\\\\\"lager_console_backend\\\\\\\",32,99,114,97,115,104,101,100,46,10,42,42,32,87,97,115,32,105,110,115,116,97,108,108,101,100,32,105,110,32,\\\\\\\"lager_event\\\\\\\",10,42,42,32,76,97,115,116,32,101,118,101,110,116,32,119,97,115,58,32,\\\\\\\"{log,{lager_...\",...]}}",10,42,42,32,87,104,101,110,32,104,97,110,100,108,101,114,32,115,116,97,116,101,32,61,61,32,"{state,{mask,255},user,lager_console_backend,lager_default_formatter,[date,\" \",time,\" \",color,\"[\",severity,\"] \",{pid,[]},\" \",message,\"\\r\\n\"],[]}",10,42,42,32,82,101,97,115,111,110,32,61,61,32,"{badarg,[{io,put_chars,[user,unicode,[[\"2020\",45,\"12\",45,\"17\"],\" \",[\"20\",58,\"36\",58,\"41\",46,\"336\"],\" \",[],\"[\",\"error\",\"] \",\"<0.280.0>\",\" \",[42,42,32,103,101,110,95,101,118,101,110,116,32,104,97,110,100,108,101,114,32,\"lager_console_backend\",32,99,114,97,115,104,101,100,46,10,42,42,32,87,97,115,32,105,110,115,116,97,108,108,101,100,32,105,110,32,\"lager_event\",10,42,42,32,76,97,115,116,32,101,118,101,110,116,32,119,97,115,58,32,\"{log,{lager_msg,[],[{pid,<0.280.0>}],error,{[\\\"2020\\\",45,\\\"12\\\",45,\\\"17\\\"],[\\\"20\\\",58,\\\"36\\\",58,\\\"41\\\",46,\\\"334\\\"]},{1608,237401,334008},[42,42,32,103,101,110,95,101,118,101,110,116,32,104,97,110,100,108,101,114,32,\\\"lager_console_backend\\\",32,99,114,97,115,104,101,100,46,10,42,42,32,87,97,115,32,105,110,115,116,97,108,108,101,100,32,105,110,32,\\\"lager_event\\\",10,42,42,32,76,97,115,116,32,101,118,101,110,116,32,119,97,115,58,32,\\\"{log,{lager_msg,[],[{pid,<0.280.0>}],error,{[\\\\\\\"2020\\\\\\\",45,\\\\\\\"12\\\\\\\",45,\\\\\\\"17\\\\\\\"],[\\\\\\\"20\\\\\\\",58,\\\\\\\"36\\\\\\\",58,\\\\\\\"41\\\\\\\",46,\\\\\\\"327\\\\\\\"]},{1608,237401,327112},[42,42,32,103,101,110,95,101,118,101,110,116,32,104,97,110,100,108,101,114,32,\\\\\\\"lager_console_backend\\\\\\\",32,99,114,97,115,104,101,100,46,10,42,42,32,87,97,115,32,105,110,115,116,97,108,108,101,100,32,105,110,32,\\\\\\\"lager_event\\\\\\\",10,42,42,32,76,97,115,116,32,101,118,101,110,116,32,119,97,115,58,32,\\\\\\\"{log,{lager_msg,[],[{pid,<0.60.0>}],info,{[\\\\\\\\\\\\\\\"2020\\\\\\\\\\\\\\\",45,\\\\\\\\\\\\\\\"12\\\\\\\\\\\\\\\",45,\\\\\\\\\\\\\\\"17\\\\\\\\\\\\\\\"],[\\\\\\\\\\\\\\\"20\\\\\\\\\\\\\\\",58,\\\\\\\\\\\\\\\"36\\\\\\\\\\\\\\\",58,\\\\\\\\\\\\\\\"41\\\\\\\\\\\\\\\",46,\\\\\\\\\\\\\\\"325\\\\\\\\\\\\\\\"]},{1608,237401,325018},\\\\\\\\\\\\\\\"SIGTERM received - shutting down\\\\\\\\\\\\\\\"}}\\\\\\\",10,42,42,32,87,104,101,110,32,104,97,110,100,108,101,114,32,115,116,97,116,101,32,61,61,32,\\\\\\\"{state,{mask,255},user,lager_console_backend,lager_default_formatter,[date,\\\\\\\\\\\\\\\" \\\\\\\\\\\\\\\",time,\\\\\\\\\\\\\\\" \\\\\\\\\\\\\\\",color,\\\\\\\\\\\\\\\"[\\\\\\\\\\\\\\\",severity,\\\\\\\\\\\\\\\"] \\\\\\\\\\\\\\\",{pid,[]},\\\\\\\\\\\\\\\" \\\\\\\\\\\\\\\",message,\\\\\\\\\\\\\\\"\\\\\\\\\\\\\\\\r\\\\\\\\\\\\\\\\n\\\\\\\\\\\\\\\"],[]}\\\\\\\",10,42,42,32,82,101,...\\\",...]}}\",10,42,42,32,87,104,101,110,32,104,97,110,100,108,101,114,32,115,116,97,116,101,32,61,61,32,\"{state,{mask,255},user,lager_console_backend,lager_default_formatter,[date,\\\" \\\",time,\\\" \\\",color,\\\"[\\\",severity,\\\"] \\\",{pid,[]},\\\" \\\",message,\\\"\\\\r\\\\n\\\"],[]}\",10,42,42,32,82,101,97,115,111,110,32,61,61,32,\"{badarg,[{io,put_chars,[user,unicode,[[\\\"2020\\\",45,\\\"12\\\",45,\\\"17\\\"],\\\"...\"],...]],...},...]}"],"\r\n"]],[]},{lager_console_backend,handle_event,2,[{file,"src/lager_console_backend.erl"},{line,179}]},{gen_event,server_update,4,[{file,"gen_event.erl"},{line,620}]},{gen_event,server_notify,4,[{file,"gen_event.erl"},{line,602}]},{gen_event,handle_msg,6,[{file,"gen_event.erl"},{line,343}]},{proc_lib,init_p_do_apply,3,[{file,"proc_lib.erl"},{line,226}]}]}
2020-12-17 20:36:41 =ERROR REPORT====
** gen_event handler lager_console_backend crashed.
** Was installed in lager_event
** Last event was: {log,{lager_msg,[],[{pid,<0.285.0>},{line,127},{file,"src/lager_handler_watcher.erl"},{module,lager_handler_watcher}],debug,{["2020",45,"12",45,"17"],["20",58,"36",58,"41",46,"340"]},{1608,237401,340472},[76,97,103,101,114,32,105,110,115,116,97,108,108,101,100,32,104,97,110,100,108,101,114,32,"lager_console_backend",32,105,110,116,111,32,"lager_event"]}}
** When handler state == {state,{mask,255},user,lager_console_backend,lager_default_formatter,[date," ",time," ",color,"[",severity,"] ",{pid,[]}," ",message,"\r\n"],[]}
** Reason == {badarg,[{io,put_chars,[user,unicode,[["2020",45,"12",45,"17"]," ",["20",58,"36",58,"41",46,"340"]," ",[],"[","debug","] ","<0.285.0>"," ",[76,97,103,101,114,32,105,110,115,116,97,108,108,101,100,32,104,97,110,100,108,101,114,32,"lager_console_backend",32,105,110,116,111,32,"lager_event"],"\r\n"]],[]},{lager_console_backend,handle_event,2,[{file,"src/lager_console_backend.erl"},{line,179}]},{gen_event,server_update,4,[{file,"gen_event.erl"},{line,620}]},{gen_event,server_notify,4,[{file,"gen_event.erl"},{line,602}]},{gen_event,handle_msg,6,[{file,"gen_event.erl"},{line,343}]},{proc_lib,init_p_do_apply,3,[{file,"proc_lib.erl"},{line,226}]}]}
2020-12-17 20:36:41 =ERROR REPORT====
** gen_event handler lager_console_backend crashed.
** Was installed in lager_event
** Last event was: {log,{lager_msg,[],[{pid,<0.285.0>},{line,127},{file,"src/lager_handler_watcher.erl"},{module,lager_handler_watcher}],debug,{["2020",45,"12",45,"17"],["20",58,"36",58,"41",46,"341"]},{1608,237401,341024},[76,97,103,101,114,32,105,110,115,116,97,108,108,101,100,32,104,97,110,100,108,101,114,32,"lager_console_backend",32,105,110,116,111,32,"lager_event"]}}
** When handler state == {state,{mask,255},user,lager_console_backend,lager_default_formatter,[date," ",time," ",color,"[",severity,"] ",{pid,[]}," ",message,"\r\n"],[]}
** Reason == {badarg,[{io,put_chars,[user,unicode,[["2020",45,"12",45,"17"]," ",["20",58,"36",58,"41",46,"341"]," ",[],"[","debug","] ","<0.285.0>"," ",[76,97,103,101,114,32,105,110,115,116,97,108,108,101,100,32,104,97,110,100,108,101,114,32,"lager_console_backend",32,105,110,116,111,32,"lager_event"],"\r\n"]],[]},{lager_console_backend,handle_event,2,[{file,"src/lager_console_backend.erl"},{line,179}]},{gen_event,server_update,4,[{file,"gen_event.erl"},{line,620}]},{gen_event,server_notify,4,[{file,"gen_event.erl"},{line,602}]},{gen_event,handle_msg,6,[{file,"gen_event.erl"},{line,343}]},{proc_lib,init_p_do_apply,3,[{file,"proc_lib.erl"},{line,226}]}]}
2020-12-17 20:36:41 =ERROR REPORT====
** gen_event handler lager_console_backend crashed.
** Was installed in lager_event
** Last event was: {log,{lager_msg,[],[{pid,<0.280.0>}],error,{["2020",45,"12",45,"17"],["20",58,"36",58,"41",46,"341"]},{1608,237401,341488},[42,42,32,103,101,110,95,101,118,101,110,116,32,104,97,110,100,108,101,114,32,"lager_console_backend",32,99,114,97,115,104,101,100,46,10,42,42,32,87,97,115,32,105,110,115,116,97,108,108,101,100,32,105,110,32,"lager_event",10,42,42,32,76,97,115,116,32,101,118,101,110,116,32,119,97,115,58,32,"{log,{lager_msg,[],[{pid,<0.280.0>}],error,{[\"2020\",45,\"12\",45,\"17\"],[\"20\",58,\"36\",58,\"41\",46,\"339\"]},{1608,237401,339352},[42,42,32,103,101,110,95,101,118,101,110,116,32,104,97,110,100,108,101,114,32,\"lager_console_backend\",32,99,114,97,115,104,101,100,46,10,42,42,32,87,97,115,32,105,110,115,116,97,108,108,101,100,32,105,110,32,\"lager_event\",10,42,42,32,76,97,115,116,32,101,118,101,110,116,32,119,97,115,58,32,\"{log,{lager_msg,[],[{pid,<0.280.0>}],error,{[\\\"2020\\\",45,\\\"12\\\",45,\\\"17\\\"],[\\\"20\\\",58,\\\"36\\\",58,\\\"41\\\",46,\\\"336\\\"]},{1608,237401,336901},[42,42,32,103,101,110,95,101,118,101,110,116,32,104,97,110,100,108,101,114,32,\\\"lager_console_backend\\\",32,99,114,97,115,104,101,100,46,10,42,42,32,87,97,115,32,105,110,115,116,97,108,108,101,100,32,105,110,32,\\\"lager_event\\\",10,42,42,32,76,97,115,116,32,101,118,101,110,116,32,119,97,115,58,32,\\\"{log,{lager_msg,[],[{pid,<0.280.0>}],error,{[\\\\\\\"2020\\\\\\\",45,\\\\\\\"12\\\\\\\",45,\\\\\\\"17\\\\\\\"],[\\\\\\\"20\\\\\\\",58,\\\\\\\"36\\\\\\\",58,\\\\\\\"41\\\\\\\",46,\\\\\\\"334\\\\\\\"]},{1608,237401,334008},[42,42,32,103,101,110,95,101,118,101,110,116,32,104,97,110,100,108,101,114,32,\\\\\\\"lager_console_backend\\\\\\\",32,99,114,97,115,104,101,100,46,10,42,42,32,87,97,115,32,105,110,115,116,97,108,108,101,100,32,105,110,32,\\\\\\\"lager_event\\\\\\\",10,42,42,32,76,97,115,116,32,101,118,101,110,116,32,119,97,115,58,32,\\\\\\\"{log,{lager_...\",...]}}",10,42,42,32,87,104,101,110,32,104,97,110,100,108,101,114,32,115,116,97,116,101,32,61,61,32,"{state,{mask,255},user,lager_console_backend,lager_default_formatter,[date,\" \",time,\" \",color,\"[\",severity,\"] \",{pid,[]},\" \",message,\"\\r\\n\"],[]}",10,42,42,32,82,101,97,115,111,110,32,61,61,32,"{badarg,[{io,put_chars,[user,unicode,[[\"2020\",45,\"12\",45,\"17\"],\" \",[\"20\",58,\"36\",58,\"41\",46,\"339\"],\" \",[],\"[\",\"error\",\"] \",\"<0.280.0>\",\" \",[42,42,32,103,101,110,95,101,118,101,110,116,32,104,97,110,100,108,101,114,32,\"lager_console_backend\",32,99,114,97,115,104,101,100,46,10,42,42,32,87,97,115,32,105,110,115,116,97,108,108,101,100,32,105,110,32,\"lager_event\",10,42,42,32,76,97,115,116,32,101,118,101,110,116,32,119,97,115,58,32,\"{log,{lager_msg,[],[{pid,<0.280.0>}],error,{[\\\"2020\\\",45,\\\"12\\\",45,\\\"17\\\"],[\\\"20\\\",58,\\\"36\\\",58,\\\"41\\\",46,\\\"336\\\"]},{1608,237401,336901},[42,42,32,103,101,110,95,101,118,101,110,116,32,104,97,110,100,108,101,114,32,\\\"lager_console_backend\\\",32,99,114,97,115,104,101,100,46,10,42,42,32,87,97,115,32,105,110,115,116,97,108,108,101,100,32,105,110,32,\\\"lager_event\\\",10,42,42,32,76,97,115,116,32,101,118,101,110,116,32,119,97,115,58,32,\\\"{log,{lager_msg,[],[{pid,<0.280.0>}],error,{[\\\\\\\"2020\\\\\\\",45,\\\\\\\"12\\\\\\\",45,\\\\\\\"17\\\\\\\"],[\\\\\\\"20\\\\\\\",58,\\\\\\\"36\\\\\\\",58,\\\\\\\"41\\\\\\\",46,\\\\\\\"334\\\\\\\"]},{1608,237401,334008},[42,42,32,103,101,110,95,101,118,101,110,116,32,104,97,110,100,108,101,114,32,\\\\\\\"lager_console_backend\\\\\\\",32,99,114,97,115,104,101,100,46,10,42,42,32,87,97,115,32,105,110,115,116,97,108,108,101,100,32,105,110,32,\\\\\\\"lager_event\\\\\\\",10,42,42,32,76,97,115,116,32,101,118,101,110,116,32,119,97,115,58,32,\\\\\\\"{log,{lager_msg,[],[{pid,<0.280.0>}],error,{[\\\\\\\\\\\\\\\"2020\\\\\\\\\\\\\\\",45,\\\\\\\\\\\\\\\"12\\\\\\\\\\\\\\\",45,\\\\\\\\\\\\\\\"17\\\\\\\\\\\\\\\"],[\\\\\\\\\\\\\\\"20\\\\\\\\\\\\\\\",58,\\\\\\\\\\\\\\\"36\\\\\\\\\\\\\\\",58,\\\\\\\\\\\\\\\"41\\\\\\\\\\\\\\\",46,\\\\\\\\\\\\\\\"327\\\\\\\\\\\\\\\"]},{1608,237401,327112},[42,42,32,103,101,110,95,101,118,101,110,116,32,104,97,110,100,108,101,114,32,\\\\\\\\\\\\\\\"lager_console_backend\\\\\\\\\\\\\\\",32,99,114,97,115,104,101,100,46,10,42,42,32,87,97,115,32,105,110,115,116,97,108,108,101,100,32,105,110,32,\\\\\\\\\\\\\\\"lager_event\\\\\\\\\\\\\\\",10,42,42,32,76,97,115,116,32,101,118,101,110,116,32,119,97,115,58,32,\\\\\\\\\\\\\\\"{log,{lager_...\\\",...]}}\",10,42,42,32,87,104,101,110,32,104,97,110,100,108,101,114,32,115,116,97,116,101,32,61,61,32,\"{state,{mask,255},user,lager_console_backend,lager_default_formatter,[date,\\\" \\\",time,\\\" \\\",color,\\\"[\\\",severity,\\\"] \\\",{pid,[]},\\\" \\\",message,\\\"\\\\r\\\\n\\\"],[]}\",10,42,42,32,82,101,97,115,111,110,32,61,61,32,\"{badarg,[{io,put_chars,[user,unicode,[[\\\"2020\\\",45,\\\"12\\\",45,\\\"17\\\"],\\\" \\\",[\\\"20\\\",58,\\\"36\\\",58,\\\"41\\\",46,\\\"336\\\"],\\\" \\\",[],\\\"[\\\",\\\"error\\\",\\\"] \\\",\\\"<0.280.0>\\\",\\\" \\\",...\"],...]],...},...]}"]}}
** When handler state == {state,{mask,255},user,lager_console_backend,lager_default_formatter,[date," ",time," ",color,"[",severity,"] ",{pid,[]}," ",message,"\r\n"],[]}
** Reason == {badarg,[{io,put_chars,[user,unicode,[["2020",45,"12",45,"17"]," ",["20",58,"36",58,"41",46,"341"]," ",[],"[","error","] ","<0.280.0>"," ",[42,42,32,103,101,110,95,101,118,101,110,116,32,104,97,110,100,108,101,114,32,"lager_console_backend",32,99,114,97,115,104,101,100,46,10,42,42,32,87,97,115,32,105,110,115,116,97,108,108,101,100,32,105,110,32,"lager_event",10,42,42,32,76,97,115,116,32,101,118,101,110,116,32,119,97,115,58,32,"{log,{lager_msg,[],[{pid,<0.280.0>}],error,{[\"2020\",45,\"12\",45,\"17\"],[\"20\",58,\"36\",58,\"41\",46,\"339\"]},{1608,237401,339352},[42,42,32,103,101,110,95,101,118,101,110,116,32,104,97,110,100,108,101,114,32,\"lager_console_backend\",32,99,114,97,115,104,101,100,46,10,42,42,32,87,97,115,32,105,110,115,116,97,108,108,101,100,32,105,110,32,\"lager_event\",10,42,42,32,76,97,115,116,32,101,118,101,110,116,32,119,97,115,58,32,\"{log,{lager_msg,[],[{pid,<0.280.0>}],error,{[\\\"2020\\\",45,\\\"12\\\",45,\\\"17\\\"],[\\\"20\\\",58,\\\"36\\\",58,\\\"41\\\",46,\\\"336\\\"]},{1608,237401,336901},[42,42,32,103,101,110,95,101,118,101,110,116,32,104,97,110,100,108,101,114,32,\\\"lager_console_backend\\\",32,99,114,97,115,104,101,100,46,10,42,42,32,87,97,115,32,105,110,115,116,97,108,108,101,100,32,105,110,32,\\\"lager_event\\\",10,42,42,32,76,97,115,116,32,101,118,101,110,116,32,119,97,115,58,32,\\\"{log,{lager_msg,[],[{pid,<0.280.0>}],error,{[\\\\\\\"2020\\\\\\\",45,\\\\\\\"12\\\\\\\",45,\\\\\\\"17\\\\\\\"],[\\\\\\\"20\\\\\\\",58,\\\\\\\"36\\\\\\\",58,\\\\\\\"41\\\\\\\",46,\\\\\\\"334\\\\\\\"]},{1608,237401,334008},[42,42,32,103,101,110,95,101,118,101,110,116,32,104,97,110,100,108,101,114,32,\\\\\\\"lager_console_backend\\\\\\\",32,99,114,97,115,104,101,100,46,10,42,42,32,87,97,115,32,105,110,115,116,97,108,108,101,100,32,105,110,32,\\\\\\\"lager_event\\\\\\\",10,42,42,32,76,97,115,116,32,101,118,101,110,116,32,119,97,115,58,32,\\\\\\\"{log,{lager_...\",...]}}",10,42,42,32,87,104,101,110,32,104,97,110,100,108,101,114,32,115,116,97,116,101,32,61,61,32,"{state,{mask,255},user,lager_console_backend,lager_default_formatter,[date,\" \",time,\" \",color,\"[\",severity,\"] \",{pid,[]},\" \",message,\"\\r\\n\"],[]}",10,42,42,32,82,101,97,115,111,110,32,61,61,32,"{badarg,[{io,put_chars,[user,unicode,[[\"2020\",45,\"12\",45,\"17\"],\" \",[\"20\",58,\"36\",58,\"41\",46,\"339\"],\" \",[],\"[\",\"error\",\"] \",\"<0.280.0>\",\" \",[42,42,32,103,101,110,95,101,118,101,110,116,32,104,97,110,100,108,101,114,32,\"lager_console_backend\",32,99,114,97,115,104,101,100,46,10,42,42,32,87,97,115,32,105,110,115,116,97,108,108,101,100,32,105,110,32,\"lager_event\",10,42,42,32,76,97,115,116,32,101,118,101,110,116,32,119,97,115,58,32,\"{log,{lager_msg,[],[{pid,<0.280.0>}],error,{[\\\"2020\\\",45,\\\"12\\\",45,\\\"17\\\"],[\\\"20\\\",58,\\\"36\\\",58,\\\"41\\\",46,\\\"336\\\"]},{1608,237401,336901},[42,42,32,103,101,110,95,101,118,101,110,116,32,104,97,110,100,108,101,114,32,\\\"lager_console_backend\\\",32,99,114,97,115,104,101,100,46,10,42,42,32,87,97,115,32,105,110,115,116,97,108,108,101,100,32,105,110,32,\\\"lager_event\\\",10,42,42,32,76,97,115,116,32,101,118,101,110,116,32,119,97,115,58,32,\\\"{log,{lager_msg,[],[{pid,<0.280.0>}],error,{[\\\\\\\"2020\\\\\\\",45,\\\\\\\"12\\\\\\\",45,\\\\\\\"17\\\\\\\"],[\\\\\\\"20\\\\\\\",58,\\\\\\\"36\\\\\\\",58,\\\\\\\"41\\\\\\\",46,\\\\\\\"334\\\\\\\"]},{1608,237401,334008},[42,42,32,103,101,110,95,101,118,101,110,116,32,104,97,110,100,108,101,114,32,\\\\\\\"lager_console_backend\\\\\\\",32,99,114,97,115,104,101,100,46,10,42,42,32,87,97,115,32,105,110,115,116,97,108,108,101,100,32,105,110,32,\\\\\\\"lager_event\\\\\\\",10,42,42,32,76,97,115,116,32,101,118,101,110,116,32,119,97,115,58,32,\\\\\\\"{log,{lager_msg,[],[{pid,<0.280.0>}],error,{[\\\\\\\\\\\\\\\"2020\\\\\\\\\\\\\\\",45,\\\\\\\\\\\\\\\"12\\\\\\\\\\\\\\\",45,\\\\\\\\\\\\\\\"17\\\\\\\\\\\\\\\"],[\\\\\\\\\\\\\\\"20\\\\\\\\\\\\\\\",58,\\\\\\\\\\\\\\\"36\\\\\\\\\\\\\\\",58,\\\\\\\\\\\\\\\"41\\\\\\\\\\\\\\\",46,\\\\\\\\\\\\\\\"327\\\\\\\\\\\\\\\"]},{1608,237401,327112},[42,42,32,103,101,110,95,101,118,101,110,116,32,104,97,110,100,108,101,114,32,\\\\\\\\\\\\\\\"lager_console_backend\\\\\\\\\\\\\\\",32,99,114,97,115,104,101,100,46,10,42,42,32,87,97,115,32,105,110,115,116,97,108,108,101,100,32,105,110,32,\\\\\\\\\\\\\\\"lager_event\\\\\\\\\\\\\\\",10,42,42,32,76,97,115,116,32,101,118,101,110,116,32,119,97,115,58,32,\\\\\\\\\\\\\\\"{log,{lager_...\\\",...]}}\",10,42,42,32,87,104,101,110,32,104,97,110,100,108,101,114,32,115,116,97,116,101,32,61,61,32,\"{state,{mask,255},user,lager_console_backend,lager_default_formatter,[date,\\\" \\\",time,\\\" \\\",color,\\\"[\\\",severity,\\\"] \\\",{pid,[]},\\\" \\\",message,\\\"\\\\r\\\\n\\\"],[]}\",10,42,42,32,82,101,97,115,111,110,32,61,61,32,\"{badarg,[{io,put_chars,[user,unicode,[[\\\"2020\\\",45,\\\"12\\\",45,\\\"17\\\"],\\\" \\\",[\\\"20\\\",58,\\\"36\\\",58,\\\"41\\\",46,\\\"336\\\"],\\\" \\\",[],\\\"[\\\",\\\"error\\\",\\\"] \\\",\\\"<0.280.0>\\\",\\\" \\\",...\"],...]],...},...]}"],"\r\n"]],[]},{lager_console_backend,handle_event,2,[{file,"src/lager_console_backend.erl"},{line,179}]},{gen_event,server_update,4,[{file,"gen_event.erl"},{line,620}]},{gen_event,server_notify,4,[{file,"gen_event.erl"},{line,602}]},{gen_event,handle_msg,6,[{file,"gen_event.erl"},{line,343}]},{proc_lib,init_p_do_apply,3,[{file,"proc_lib.erl"},{line,226}]}]}
